{
  "photos": {
    "page": 1,
    "pages": 2,
    "perpage": 100,
    "total": 157,
    "photo": [
      {
        "id": "49817377821",
        "owner": "24309230@N03",
        "secret": "278c16c7fc",
        "server": "65535",
        "farm": 66,
        "title": "Red-billed Francolin",
        "ispublic": 1,
        "isfriend": 0,
        "isfamily": 0
      },
      {
        "id": "47991570486",
        "owner": "140968033@N04",
        "secret": "4ab40b5e76",
        "server": "65535",
        "farm": 66,
        "title": "Red billed francolin - Pternistis adspersus - Francolin \u00e0 bec rouge",
        "ispublic": 1,
        "isfriend": 0,
        "isfamily": 0
      },
      {
        "id": "43214780085",
        "owner": "32005048@N06",
        "secret": "761d3b76cc",
        "server": "1857",
        "farm": 2,
        "title": "Pternistis adspersus (Red-billed Spurfowl)",
        "ispublic": 1,
        "isfriend": 0,
        "isfamily": 0
      },
      {
        "id": "44121542131",
        "owner": "32005048@N06",
        "secret": "59fdb0606a",
        "server": "1886",
        "farm": 2,
        "title": "Pternistis adspersus (Red-billed Spurfowl)",
        "ispublic": 1,
        "isfriend": 0,
        "isfamily": 0
      },
      {
        "id": "30251650298",
        "owner": "32005048@N06",
        "secret": "8a6b2c245e",
        "server": "1894",
        "farm": 2,
        "title": "Pternistis adspersus (Red-billed Spurfowl)",
        "ispublic": 1,
        "isfriend": 0,
        "isfamily": 0
      },
      {
        "id": "42310735520",
        "owner": "32005048@N06",
        "secret": "eb41bbfa50",
        "server": "1819",
        "farm": 2,
        "title": "Pternistis adspersus (Red-billed Spurfowl)",
        "ispublic": 1,
        "isfriend": 0,
        "isfamily": 0
      },
      {
        "id": "43357682804",
        "owner": "95579115@N03",
        "secret": "980f7d32b4",
        "server": "1792",
        "farm": 2,
        "title": "Red-billed Spurfowl (Pternistis adspersus) \u041a\u0440\u0430\u0441\u043d\u043e\u043a\u043b\u044e\u0432\u044b\u0439 \u0442\u0443\u0440\u0430\u0447",
        "ispublic": 1,
        "isfriend": 0,
        "isfamily": 0
      },
      {
        "id": "42969964985",
        "owner": "32005048@N06",
        "secret": "6a8b5c50e2",
        "server": "1775",
        "farm": 2,
        "title": "Pternistis adspersus (Red-billed Spurfowl)",
        "ispublic": 1,
        "isfriend": 0,
        "isfamily": 0
      },
      {
        "id": "43156555054",
        "owner": "32005048@N06",
        "secret": "e3eae581ea",
        "server": "928",
        "farm": 1,
        "title": "Pternistis adspersus (Red-billed Spurfowl)",
        "ispublic": 1,
        "isfriend": 0,
        "isfamily": 0
      },
      {
        "id": "41913953924",
        "owner": "34655572@N06",
        "secret": "5411829f03",
        "server": "1734",
        "farm": 2,
        "title": "Red-billed Spurfowl",
        "ispublic": 1,
        "isfriend": 0,
        "isfamily": 0
      },
      {
        "id": "35592759351",
        "owner": "34655572@N06",
        "secret": "928fd3feca",
        "server": "4215",
        "farm": 5,
        "title": "Pternistis adspersus: Red-billed Spurfowl",
        "ispublic": 1,
        "isfriend": 0,
        "isfamily": 0
      },
      {
        "id": "29340957755",
        "owner": "81126336@N00",
        "secret": "fd22e7b1ae",
        "server": "8579",
        "farm": 9,
        "title": "Red-billed Spurfowl",
        "ispublic": 1,
        "isfriend": 0,
        "isfamily": 0
      },
      {
        "id": "24302698212",
        "owner": "7291425@N07",
        "secret": "1c028aa5cd",
        "server": "1713",
        "farm": 2,
        "title": "Feathered Visitors In The Camp",
        "ispublic": 1,
        "isfriend": 0,
        "isfamily": 0
      },
      {
        "id": "23740938579",
        "owner": "86585370@N00",
        "secret": "67afc8e55e",
        "server": "1511",
        "farm": 2,
        "title": "Francolim-de-bico-vermelho \/\/ Red-billed Spurfowl",
        "ispublic": 1,
        "isfriend": 0,
        "isfamily": 0
      },
      {
        "id": "16060012143",
        "owner": "22594349@N08",
        "secret": "a336334fc2",
        "server": "8577",
        "farm": 9,
        "title": "Red-billed Spurfowl (Pternistis adspersus)",
        "ispublic": 1,
        "isfriend": 0,
        "isfamily": 0
      },
      {
        "id": "16430308591",
        "owner": "34368269@N04",
        "secret": "092ec5a4c6",
        "server": "7439",
        "farm": 8,
        "title": "Red-billed Spurfowl",
        "ispublic": 1,
        "isfriend": 0,
        "isfamily": 0
      },
      {
        "id": "15807985604",
        "owner": "88026949@N00",
        "secret": "3535f96c14",
        "server": "7371",
        "farm": 8,
        "title": "Red-billed Spurfowl",
        "ispublic": 1,
        "isfriend": 0,
        "isfamily": 0
      },
      {
        "id": "15652158333",
        "owner": "33057724@N04",
        "secret": "8ca38dc6c1",
        "server": "65535",
        "farm": 66,
        "title": "Red-billed Francolin, Pternistis adspersus",
        "ispublic": 1,
        "isfriend": 0,
        "isfamily": 0
      },
      {
        "id": "16271225642",
        "owner": "33057724@N04",
        "secret": "3a7efd733b",
        "server": "65535",
        "farm": 66,
        "title": "Red-billed Francolin, Pternistis adspersus",
        "ispublic": 1,
        "isfriend": 0,
        "isfamily": 0
      },
      {
        "id": "51338352412",
        "owner": "12639178@N07",
        "secret": "fd4568cb2a",
        "server": "65535",
        "farm": 66,
        "title": "Rotschnabelfrankolin",
        "ispublic": 1,
        "isfriend": 0,
        "isfamily": 0
      },
      {
        "id": "50140499766",
        "owner": "12639178@N07",
        "secret": "f55a6b3a19",
        "server": "65535",
        "farm": 66,
        "title": "Namibia, Red-billed Spurfowl \/ Francolin",
        "ispublic": 1,
        "isfriend": 0,
        "isfamily": 0
      },
      {
        "id": "50140735437",
        "owner": "12639178@N07",
        "secret": "ea295b5bc9",
        "server": "65535",
        "farm": 66,
        "title": "Namibia, Red-billed Spurfowl \/ Francolin",
        "ispublic": 1,
        "isfriend": 0,
        "isfamily": 0
      },
      {
        "id": "50110716412",
        "owner": "22594349@N08",
        "secret": "9927cd250b",
        "server": "65535",
        "farm": 66,
        "title": "Red-billed Spurfowl  (Pternistis adspersus)",
        "ispublic": 1,
        "isfriend": 0,
        "isfamily": 0
      },
      {
        "id": "49817684087",
        "owner": "24309230@N03",
        "secret": "e16302cd25",
        "server": "65535",
        "farm": 66,
        "title": "Red-billed Francolin",
        "ispublic": 1,
        "isfriend": 0,
        "isfamily": 0
      },
      {
        "id": "49734090952",
        "owner": "12639178@N07",
        "secret": "02097f5ec8",
        "server": "65535",
        "farm": 66,
        "title": "Rotschnabelfrankolin",
        "ispublic": 1,
        "isfriend": 0,
        "isfamily": 0
      },
      {
        "id": "49372536266",
        "owner": "27588142@N06",
        "secret": "398b37643c",
        "server": "65535",
        "farm": 66,
        "title": "Red-billed Francolin",
        "ispublic": 1,
        "isfriend": 0,
        "isfamily": 0
      },
      {
        "id": "49187358361",
        "owner": "27588142@N06",
        "secret": "b5968419ff",
        "server": "65535",
        "farm": 66,
        "title": "Red-billed Francolin",
        "ispublic": 1,
        "isfriend": 0,
        "isfamily": 0
      },
      {
        "id": "49187546562",
        "owner": "27588142@N06",
        "secret": "3180c8d360",
        "server": "65535",
        "farm": 66,
        "title": "Red-billed Francolin",
        "ispublic": 1,
        "isfriend": 0,
        "isfamily": 0
      },
      {
        "id": "49187406367",
        "owner": "27588142@N06",
        "secret": "00b1fbd660",
        "server": "65535",
        "farm": 66,
        "title": "Red-billed Francolin",
        "ispublic": 1,
        "isfriend": 0,
        "isfamily": 0
      },
      {
        "id": "49187406187",
        "owner": "27588142@N06",
        "secret": "5679afeb46",
        "server": "65535",
        "farm": 66,
        "title": "Red-billed Francolin",
        "ispublic": 1,
        "isfriend": 0,
        "isfamily": 0
      },
      {
        "id": "49178362266",
        "owner": "76973714@N06",
        "secret": "7711751f0c",
        "server": "65535",
        "farm": 66,
        "title": "Red-billed Spurfowl",
        "ispublic": 1,
        "isfriend": 0,
        "isfamily": 0
      },
      {
        "id": "49043036061",
        "owner": "12639178@N07",
        "secret": "4f0c574415",
        "server": "65535",
        "farm": 66,
        "title": "Zimbabwe - Rotschnabelfrankolin",
        "ispublic": 1,
        "isfriend": 0,
        "isfamily": 0
      },
      {
        "id": "48617114066",
        "owner": "58519338@N08",
        "secret": "e4665beaa2",
        "server": "65535",
        "farm": 66,
        "title": "Red-billed Francolin - Pternistis adspersus",
        "ispublic": 1,
        "isfriend": 0,
        "isfamily": 0
      },
      {
        "id": "48565056521",
        "owner": "69015080@N00",
        "secret": "c6e905fca1",
        "server": "65535",
        "farm": 66,
        "title": "Francolin \u00e0 bec rouge \/ Red-billed francolin",
        "ispublic": 1,
        "isfriend": 0,
        "isfamily": 0
      },
      {
        "id": "48214763257",
        "owner": "41039814@N08",
        "secret": "9186970be1",
        "server": "65535",
        "farm": 66,
        "title": "Flirting? Or... A lover's tiff..?",
        "ispublic": 1,
        "isfriend": 0,
        "isfamily": 0
      },
      {
        "id": "48057385082",
        "owner": "56686021@N04",
        "secret": "75c13209df",
        "server": "65535",
        "farm": 66,
        "title": "Red-billed Spurfowl",
        "ispublic": 1,
        "isfriend": 0,
        "isfamily": 0
      },
      {
        "id": "48050272332",
        "owner": "44614344@N07",
        "secret": "957fc53e6e",
        "server": "65535",
        "farm": 66,
        "title": "Red-billed Francolin",
        "ispublic": 1,
        "isfriend": 0,
        "isfamily": 0
      },
      {
        "id": "46678720065",
        "owner": "12639178@N07",
        "secret": "0dd3297894",
        "server": "7830",
        "farm": 8,
        "title": "Rotschnabelfrankoline 21. 03.19b",
        "ispublic": 1,
        "isfriend": 0,
        "isfamily": 0
      },
      {
        "id": "46678719465",
        "owner": "12639178@N07",
        "secret": "c53a9ab081",
        "server": "7857",
        "farm": 8,
        "title": "Rotschnabelfrankoline 21.03.19a",
        "ispublic": 1,
        "isfriend": 0,
        "isfamily": 0
      },
      {
        "id": "46621121995",
        "owner": "140734051@N08",
        "secret": "d73fe67a54",
        "server": "7914",
        "farm": 8,
        "title": "\u041a\u0440\u0430\u0441\u043d\u043e\u043a\u043b\u044e\u0432\u044b\u0439 \u0442\u0443\u0440\u0430\u0447, Pternistis adspersus, Red-billed Francolin",
        "ispublic": 1,
        "isfriend": 0,
        "isfamily": 0
      },
      {
        "id": "32594144617",
        "owner": "140734051@N08",
        "secret": "229ac250bb",
        "server": "7819",
        "farm": 8,
        "title": "\u041a\u0440\u0430\u0441\u043d\u043e\u043a\u043b\u044e\u0432\u044b\u0439 \u0442\u0443\u0440\u0430\u0447, Pternistis adspersus, Red-billed Francolin",
        "ispublic": 1,
        "isfriend": 0,
        "isfamily": 0
      },
      {
        "id": "46812938904",
        "owner": "140734051@N08",
        "secret": "e2e468ced1",
        "server": "7827",
        "farm": 8,
        "title": "\u041a\u0440\u0430\u0441\u043d\u043e\u043a\u043b\u044e\u0432\u044b\u0439 \u0442\u0443\u0440\u0430\u0447, Pternistis adspersus, Red-billed Francolin",
        "ispublic": 1,
        "isfriend": 0,
        "isfamily": 0
      },
      {
        "id": "46812938594",
        "owner": "140734051@N08",
        "secret": "6e7f67437d",
        "server": "7893",
        "farm": 8,
        "title": "\u041a\u0440\u0430\u0441\u043d\u043e\u043a\u043b\u044e\u0432\u044b\u0439 \u0442\u0443\u0440\u0430\u0447, Pternistis adspersus, Red-billed Francolin",
        "ispublic": 1,
        "isfriend": 0,
        "isfamily": 0
      },
      {
        "id": "46812938404",
        "owner": "140734051@N08",
        "secret": "1137e8cce1",
        "server": "7823",
        "farm": 8,
        "title": "\u041a\u0440\u0430\u0441\u043d\u043e\u043a\u043b\u044e\u0432\u044b\u0439 \u0442\u0443\u0440\u0430\u0447, Pternistis adspersus, Red-billed Francolin",
        "ispublic": 1,
        "isfriend": 0,
        "isfamily": 0
      },
      {
        "id": "32594143817",
        "owner": "140734051@N08",
        "secret": "9828cc95f6",
        "server": "7842",
        "farm": 8,
        "title": "\u041a\u0440\u0430\u0441\u043d\u043e\u043a\u043b\u044e\u0432\u044b\u0439 \u0442\u0443\u0440\u0430\u0447, Pternistis adspersus, Red-billed Francolin",
        "ispublic": 1,
        "isfriend": 0,
        "isfamily": 0
      },
      {
        "id": "33659828658",
        "owner": "140734051@N08",
        "secret": "d77750aaab",
        "server": "7906",
        "farm": 8,
        "title": "\u041a\u0440\u0430\u0441\u043d\u043e\u043a\u043b\u044e\u0432\u044b\u0439 \u0442\u0443\u0440\u0430\u0447, Pternistis adspersus, Red-billed Francolin",
        "ispublic": 1,
        "isfriend": 0,
        "isfamily": 0
      },
      {
        "id": "32594143367",
        "owner": "140734051@N08",
        "secret": "234731c384",
        "server": "7883",
        "farm": 8,
        "title": "\u041a\u0440\u0430\u0441\u043d\u043e\u043a\u043b\u044e\u0432\u044b\u0439 \u0442\u0443\u0440\u0430\u0447, Pternistis adspersus, Red-billed Francolin",
        "ispublic": 1,
        "isfriend": 0,
        "isfamily": 0
      },
      {
        "id": "32594143097",
        "owner": "140734051@N08",
        "secret": "855c33974c",
        "server": "7886",
        "farm": 8,
        "title": "\u041a\u0440\u0430\u0441\u043d\u043e\u043a\u043b\u044e\u0432\u044b\u0439 \u0442\u0443\u0440\u0430\u0447, Pternistis adspersus, Red-billed Francolin",
        "ispublic": 1,
        "isfriend": 0,
        "isfamily": 0
      },
      {
        "id": "32594142537",
        "owner": "140734051@N08",
        "secret": "dee35b83ac",
        "server": "7916",
        "farm": 8,
        "title": "\u041a\u0440\u0430\u0441\u043d\u043e\u043a\u043b\u044e\u0432\u044b\u0439 \u0442\u0443\u0440\u0430\u0447, Pternistis adspersus, Red-billed Francolin",
        "ispublic": 1,
        "isfriend": 0,
        "isfamily": 0
      },
      {
        "id": "47443932431",
        "owner": "56686021@N04",
        "secret": "b303e5c75e",
        "server": "7802",
        "farm": 8,
        "title": "Red-billed Spurfowl",
        "ispublic": 1,
        "isfriend": 0,
        "isfamily": 0
      },
      {
        "id": "33475599058",
        "owner": "56686021@N04",
        "secret": "910f00ffb2",
        "server": "7837",
        "farm": 8,
        "title": "Red-billed Spurfowl",
        "ispublic": 1,
        "isfriend": 0,
        "isfamily": 0
      },
      {
        "id": "40316555913",
        "owner": "56686021@N04",
        "secret": "39f955e2be",
        "server": "7853",
        "farm": 8,
        "title": "Red-billed Spurfowl",
        "ispublic": 1,
        "isfriend": 0,
        "isfamily": 0
      },
      {
        "id": "47071649441",
        "owner": "25899079@N08",
        "secret": "4dbedb933f",
        "server": "7909",
        "farm": 8,
        "title": "Red-billed Spurfowl (0131)",
        "ispublic": 1,
        "isfriend": 0,
        "isfamily": 0
      },
      {
        "id": "46244031574",
        "owner": "12639178@N07",
        "secret": "af7b72b86d",
        "server": "4891",
        "farm": 5,
        "title": "Sandbad eines Rotschnabelfrankolin (M oder W?) in Namibia",
        "ispublic": 1,
        "isfriend": 0,
        "isfamily": 0
      },
      {
        "id": "32027466517",
        "owner": "12639178@N07",
        "secret": "6e76e635fc",
        "server": "7830",
        "farm": 8,
        "title": "Ein Rotschnabelfrankolin (M oder W?) in Namibia",
        "ispublic": 1,
        "isfriend": 0,
        "isfamily": 0
      },
      {
        "id": "39920995113",
        "owner": "63019250@N03",
        "secret": "8232c465d9",
        "server": "7857",
        "farm": 8,
        "title": "red-billed spurfowl (Pternistis adspersus), also known as the red-billed francolin, Hwange National Park, Zimbabwe",
        "ispublic": 1,
        "isfriend": 0,
        "isfamily": 0
      },
      {
        "id": "45570835582",
        "owner": "12639178@N07",
        "secret": "0ca68a7a8f",
        "server": "1934",
        "farm": 2,
        "title": "Red-billed Francolin, Rotschnabelfrankolin [Pternistis adspersus",
        "ispublic": 1,
        "isfriend": 0,
        "isfamily": 0
      },
      {
        "id": "44704796185",
        "owner": "12639178@N07",
        "secret": "23266b62f0",
        "server": "1926",
        "farm": 2,
        "title": "Red-billed Francolin, Rotschnabelfrankolin [Pternistis adspersus]",
        "ispublic": 1,
        "isfriend": 0,
        "isfamily": 0
      },
      {
        "id": "30300867668",
        "owner": "12639178@N07",
        "secret": "cff26ec2da",
        "server": "1870",
        "farm": 2,
        "title": "Rotschnabelfrankolin, Namibia",
        "ispublic": 1,
        "isfriend": 0,
        "isfamily": 0
      },
      {
        "id": "44096872682",
        "owner": "12639178@N07",
        "secret": "22d8d2aa50",
        "server": "1820",
        "farm": 2,
        "title": "Rotschnabelfrankolin, Namibia",
        "ispublic": 1,
        "isfriend": 0,
        "isfamily": 0
      },
      {
        "id": "27291379689",
        "owner": "12639178@N07",
        "secret": "2131ff0ce5",
        "server": "4529",
        "farm": 5,
        "title": "Da k\u00f6nnte was Essbares sein , NGIDn705552319",
        "ispublic": 1,
        "isfriend": 0,
        "isfamily": 0
      },
      {
        "id": "27291377059",
        "owner": "12639178@N07",
        "secret": "48255c27b5",
        "server": "4563",
        "farm": 5,
        "title": "---und los! , NGID1509369803",
        "ispublic": 1,
        "isfriend": 0,
        "isfamily": 0
      },
      {
        "id": "39037880692",
        "owner": "12639178@N07",
        "secret": "e2510e4b88",
        "server": "4537",
        "farm": 5,
        "title": "Ansatz zum Sprung--- , NGID447694382",
        "ispublic": 1,
        "isfriend": 0,
        "isfamily": 0
      },
      {
        "id": "38358404414",
        "owner": "12639178@N07",
        "secret": "7ba8a3a69d",
        "server": "4527",
        "farm": 5,
        "title": "Pternistis adspersus , NGID39727717",
        "ispublic": 1,
        "isfriend": 0,
        "isfamily": 0
      },
      {
        "id": "24207664987",
        "owner": "12639178@N07",
        "secret": "f95b5ef24c",
        "server": "4539",
        "farm": 5,
        "title": "Rotschnabel-Frankolin , NGID494460683",
        "ispublic": 1,
        "isfriend": 0,
        "isfamily": 0
      },
      {
        "id": "38338780964",
        "owner": "12639178@N07",
        "secret": "efe2a9b621",
        "server": "4593",
        "farm": 5,
        "title": "Beleg Rotschnabel-Frankolin , NGID2043754896",
        "ispublic": 1,
        "isfriend": 0,
        "isfamily": 0
      },
      {
        "id": "24034511127",
        "owner": "76973714@N06",
        "secret": "fed2f5a044",
        "server": "4566",
        "farm": 5,
        "title": "Red-billed Spurfowl",
        "ispublic": 1,
        "isfriend": 0,
        "isfamily": 0
      },
      {
        "id": "37091004360",
        "owner": "61827574@N03",
        "secret": "057d00b8a9",
        "server": "4502",
        "farm": 5,
        "title": "Red-billed Spurfowl - Pternistis adspersus",
        "ispublic": 1,
        "isfriend": 0,
        "isfamily": 0
      },
      {
        "id": "36954769186",
        "owner": "19731486@N07",
        "secret": "a8cd60ae1d",
        "server": "4417",
        "farm": 5,
        "title": "Savute in Chobe National Park",
        "ispublic": 1,
        "isfriend": 0,
        "isfamily": 0
      },
      {
        "id": "35605624581",
        "owner": "88593217@N04",
        "secret": "e0002cc3e0",
        "server": "4236",
        "farm": 5,
        "title": "Red-billed Francolin, Namutoni, Etosha National Park, Namibia October 2014",
        "ispublic": 1,
        "isfriend": 0,
        "isfamily": 0
      },
      {
        "id": "35605619481",
        "owner": "88593217@N04",
        "secret": "ccca72c1e1",
        "server": "4214",
        "farm": 5,
        "title": "Red-billed Francolin, Namutoni, Etosha National Park, Namibia October 2014",
        "ispublic": 1,
        "isfriend": 0,
        "isfamily": 0
      },
      {
        "id": "35530266875",
        "owner": "127951864@N03",
        "secret": "a5d4b46267",
        "server": "4207",
        "farm": 5,
        "title": "Red-billed SpurfowlRH2_6792",
        "ispublic": 1,
        "isfriend": 0,
        "isfamily": 0
      },
      {
        "id": "35403107276",
        "owner": "88593217@N04",
        "secret": "e7756acefd",
        "server": "4264",
        "farm": 5,
        "title": "Red-billed Francolin, Brandberg, Namibia October 2014",
        "ispublic": 1,
        "isfriend": 0,
        "isfamily": 0
      },
      {
        "id": "32991641304",
        "owner": "61079970@N06",
        "secret": "2a5722f5b8",
        "server": "2815",
        "farm": 3,
        "title": "Pternistis adspersus-Red-billed Spurfowl",
        "ispublic": 1,
        "isfriend": 0,
        "isfamily": 0
      },
      {
        "id": "31526906154",
        "owner": "93242958@N00",
        "secret": "0423890e53",
        "server": "526",
        "farm": 1,
        "title": "Red-billed spurfowl, Pternistis adspersus, at Chobe National Park, Botswana",
        "ispublic": 1,
        "isfriend": 0,
        "isfamily": 0
      },
      {
        "id": "31992479790",
        "owner": "93242958@N00",
        "secret": "43519213db",
        "server": "260",
        "farm": 1,
        "title": "Red-billed spurfowl, Pternistis adspersus, at Chobe National Park, Botswana",
        "ispublic": 1,
        "isfriend": 0,
        "isfamily": 0
      },
      {
        "id": "32219240092",
        "owner": "93242958@N00",
        "secret": "67f72646a0",
        "server": "550",
        "farm": 1,
        "title": "Red-billed spurfowl, Pternistis adspersus, at Chobe National Park, Botswana",
        "ispublic": 1,
        "isfriend": 0,
        "isfamily": 0
      },
      {
        "id": "31992465450",
        "owner": "93242958@N00",
        "secret": "89e2a45f6b",
        "server": "463",
        "farm": 1,
        "title": "Red-billed spurfowl, Pternistis adspersus, at Chobe National Park, Botswana",
        "ispublic": 1,
        "isfriend": 0,
        "isfamily": 0
      },
      {
        "id": "32219218682",
        "owner": "93242958@N00",
        "secret": "b17b90f6ec",
        "server": "621",
        "farm": 1,
        "title": "Red-billed spurfowl, Pternistis adspersus, at Chobe National Park, Botswana",
        "ispublic": 1,
        "isfriend": 0,
        "isfamily": 0
      },
      {
        "id": "31992450220",
        "owner": "93242958@N00",
        "secret": "21e3b22794",
        "server": "605",
        "farm": 1,
        "title": "Red-billed spurfowl, Pternistis adspersus, at Chobe National Park, Botswana",
        "ispublic": 1,
        "isfriend": 0,
        "isfamily": 0
      },
      {
        "id": "32249354751",
        "owner": "93242958@N00",
        "secret": "cf4c05d3b4",
        "server": "402",
        "farm": 1,
        "title": "Red-billed spurfowl, Pternistis adspersus, at Chobe National Park, Botswana",
        "ispublic": 1,
        "isfriend": 0,
        "isfamily": 0
      },
      {
        "id": "31992439650",
        "owner": "93242958@N00",
        "secret": "54a2ed6a51",
        "server": "736",
        "farm": 1,
        "title": "Red-billed spurfowl, Pternistis adspersus, at Chobe National Park, Botswana",
        "ispublic": 1,
        "isfriend": 0,
        "isfamily": 0
      },
      {
        "id": "32330325906",
        "owner": "93242958@N00",
        "secret": "b02152f49e",
        "server": "479",
        "farm": 1,
        "title": "Red-billed spurfowl, Pternistis adspersus, at Chobe National Park, Botswana",
        "ispublic": 1,
        "isfriend": 0,
        "isfamily": 0
      },
      {
        "id": "32249335581",
        "owner": "93242958@N00",
        "secret": "342c7ae5e5",
        "server": "695",
        "farm": 1,
        "title": "Red-billed spurfowl, Pternistis adspersus, at Chobe National Park, Botswana",
        "ispublic": 1,
        "isfriend": 0,
        "isfamily": 0
      },
      {
        "id": "30671888505",
        "owner": "28764032@N00",
        "secret": "4e0eea518b",
        "server": "5507",
        "farm": 6,
        "title": "Red-billed Spurfowl (Pternistis adspersus), Khwai River, Botswana",
        "ispublic": 1,
        "isfriend": 0,
        "isfamily": 0
      },
      {
        "id": "23982796954",
        "owner": "81126336@N00",
        "secret": "8b3c1a3464",
        "server": "1503",
        "farm": 2,
        "title": "Red-billed Spurfowl",
        "ispublic": 1,
        "isfriend": 0,
        "isfamily": 0
      },
      {
        "id": "23703838301",
        "owner": "129419861@N06",
        "secret": "b71090659c",
        "server": "5803",
        "farm": 6,
        "title": "Red-billed francolin www.4-your-eyes.com",
        "ispublic": 1,
        "isfriend": 0,
        "isfamily": 0
      },
      {
        "id": "23543137676",
        "owner": "7340904@N07",
        "secret": "eb60dacb48",
        "server": "5723",
        "farm": 6,
        "title": "Red-billed spurfowl",
        "ispublic": 1,
        "isfriend": 0,
        "isfamily": 0
      },
      {
        "id": "22801663104",
        "owner": "44614344@N07",
        "secret": "9ef4886213",
        "server": "764",
        "farm": 1,
        "title": "Red-billed Francolin",
        "ispublic": 1,
        "isfriend": 0,
        "isfamily": 0
      },
      {
        "id": "23321497222",
        "owner": "44614344@N07",
        "secret": "9ae882124e",
        "server": "5626",
        "farm": 6,
        "title": "Red-billed Francolin",
        "ispublic": 1,
        "isfriend": 0,
        "isfamily": 0
      },
      {
        "id": "22980241289",
        "owner": "44614344@N07",
        "secret": "a154dae28a",
        "server": "5715",
        "farm": 6,
        "title": "Red-billed Francolin",
        "ispublic": 1,
        "isfriend": 0,
        "isfamily": 0
      },
      {
        "id": "22555756772",
        "owner": "7340904@N07",
        "secret": "3fc8a5e873",
        "server": "644",
        "farm": 1,
        "title": "Red-billed spurfowl",
        "ispublic": 1,
        "isfriend": 0,
        "isfamily": 0
      },
      {
        "id": "16864662935",
        "owner": "120198067@N08",
        "secret": "74081b2b2c",
        "server": "7282",
        "farm": 8,
        "title": "Red-billed Spurfowl (Pternistis adspersus)",
        "ispublic": 1,
        "isfriend": 0,
        "isfamily": 0
      },
      {
        "id": "16619579882",
        "owner": "51928691@N04",
        "secret": "698a7d2b02",
        "server": "8679",
        "farm": 9,
        "title": "Red-billed Spurfowl (Pternistis adspersus) 1 012015",
        "ispublic": 1,
        "isfriend": 0,
        "isfamily": 0
      },
      {
        "id": "16594254886",
        "owner": "51928691@N04",
        "secret": "bd26d359ce",
        "server": "8682",
        "farm": 9,
        "title": "Red-billed Spurfowl (Pternistis adspersus) 2 012015",
        "ispublic": 1,
        "isfriend": 0,
        "isfamily": 0
      },
      {
        "id": "16393730189",
        "owner": "26849317@N03",
        "secret": "2834e140bd",
        "server": "7286",
        "farm": 8,
        "title": "Red-Billed Francolin",
        "ispublic": 1,
        "isfriend": 0,
        "isfamily": 0
      },
      {
        "id": "15624475303",
        "owner": "36887207@N06",
        "secret": "d3bbf402ba",
        "server": "8650",
        "farm": 9,
        "title": "Red-billed spurfowl at Nkasa Rupara National Park",
        "ispublic": 1,
        "isfriend": 0,
        "isfamily": 0
      },
      {
        "id": "15541621349",
        "owner": "28092414@N03",
        "secret": "6627c8209c",
        "server": "3944",
        "farm": 4,
        "title": "Red-billed Spurfowl at Hwange IMG_5267",
        "ispublic": 1,
        "isfriend": 0,
        "isfamily": 0
      },
      {
        "id": "15013831393",
        "owner": "36424218@N00",
        "secret": "80e7826fd9",
        "server": "3932",
        "farm": 4,
        "title": "Red-billed Spurfowl",
        "ispublic": 1,
        "isfriend": 0,
        "isfamily": 0
      },
      {
        "id": "15546999365",
        "owner": "36424218@N00",
        "secret": "e327b18672",
        "server": "3939",
        "farm": 4,
        "title": "Red-billed Spurfowl chick",
        "ispublic": 1,
        "isfriend": 0,
        "isfamily": 0
      }
    ]
  },
  "stat": "ok"
}